{"foodSearchCriteria":{"generalSearchInput":"raw broccoli","pageNumber":1,"requireAllWords":false},"totalHits":7316,"currentPage":1,"totalPages":147,"foods":[{"fdcId":321900,"description":"Broccoli, raw","scientificName":"Brassica oleracea var. italica","dataType":"Foundation","ndbNumber":"11090","publishedDate":"2019-03-12","allHighlightFields":"","score":653.8646},{"fdcId":170379,"description":"Broccoli, raw","scientificName":"Brassica oleracea var. italica","dataType":"SR Legacy","ndbNumber":"11090","publishedDate":"2019-03-12","allHighlightFields":"","score":653.8646},{"fdcId":342297,"description":"Broccoli, raw","dataType":"Survey (FNDDS)","foodCode":"72201100","publishedDate":"2019-03-12","allHighlightFields":"","score":653.8646},{"fdcId":170381,"description":"Broccoli raab, raw","scientificName":"Brassica ruvo","commonNames":"Broccoli rabe, Rapini","dataType":"SR Legacy","ndbNumber":"11096","publishedDate":"2019-03-12","allHighlightFields":"<b>Common Names</b>: <em>Broccoli</em> rabe, Rapini","score":595.48126},{"fdcId":342039,"description":"Broccoli raab, raw","additionalDescriptions":"Broccoli rabe, raap, or rapini","dataType":"Survey (FNDDS)","foodCode":"72103000","publishedDate":"2019-03-12","allHighlightFields":"<b>Includes</b>: <em>Broccoli</em> rabe, raap, or rapini","score":591.41583},{"fdcId":169404,"description":"Broccoli, chinese, raw","scientificName":" Brassica oleracea var. alboglabra","commonNames":"gai-lan, kai-lan","dataType":"SR Legacy","ndbNumber":"11994","publishedDate":"2019-03-12","allHighlightFields":"","score":581.79156},{"fdcId":342328,"description":"Broccoli, chinese, raw","dataType":"Survey (FNDDS)","foodCode":"72203000","publishedDate":"2019-03-12","allHighlightFields":"","score":581.79156},{"fdcId":169329,"description":"Broccoli, leaves, raw","dataType":"SR Legacy","ndbNumber":"11739","publishedDate":"2019-03-12","allHighlightFields":"","score":581.79156},{"fdcId":169331,"description":"Broccoli, stalks, raw","dataType":"SR Legacy","ndbNumber":"11741","publishedDate":"2019-03-12","allHighlightFields":"","score":581.79156},{"fdcId":169330,"description":"Broccoli, flower clusters, raw","dataType":"SR Legacy","ndbNumber":"11740","publishedDate":"2019-03-12","allHighlightFields":"","score":524.0495},{"fdcId":338397,"description":"Beef and broccoli","dataType":"Survey (FNDDS)","foodCode":"27415110","publishedDate":"2019-03-12","allHighlightFields":"","score":357.92883},{"fdcId":342325,"description":"Broccoli casserole (broccoli, noodles, and cream sauce)","dataType":"Survey (FNDDS)","foodCode":"72202010","publishedDate":"2019-03-12","allHighlightFields":"","score":345.07852},{"fdcId":170382,"description":"Broccoli raab, cooked","commonNames":"Broccoli rabe, Rapini","dataType":"SR Legacy","ndbNumber":"11097","publishedDate":"2019-03-12","allHighlightFields":"<b>Common Names</b>: <em>Broccoli</em> rabe, Rapini","score":332.8342},{"fdcId":342645,"description":"Broccoli slaw salad ","additionalDescriptions":"Broccoli salad, NFS","dataType":"Survey (FNDDS)","foodCode":"75140510","publishedDate":"2019-03-12","allHighlightFields":"<b>Includes</b>: <em>Broccoli</em> salad, NFS","score":328.89166},{"fdcId":342326,"description":"Broccoli casserole (broccoli, rice, cheese, and mushroom sauce)","dataType":"Survey (FNDDS)","foodCode":"72202020","publishedDate":"2019-03-12","allHighlightFields":"","score":325.65955},{"fdcId":169392,"description":"Broccoli, chinese, cooked","dataType":"SR Legacy","ndbNumber":"11969","publishedDate":"2019-03-12","allHighlightFields":"","score":318.52563},{"fdcId":341423,"description":"Grapefruit, raw","additionalDescriptions":"grapefruit, NS as to raw, canned,or frozen","dataType":"Survey (FNDDS)","foodCode":"61101010","publishedDate":"2019-03-12","allHighlightFields":"<b>Includes</b>: grapefruit, NS as to <em>raw</em>, canned,or frozen","score":309.68326},{"fdcId":341668,"description":"Strawberries, raw","additionalDescriptions":"strawberries, NS as to raw, cooked, canned, or frozen","dataType":"Survey (FNDDS)","foodCode":"63223020","publishedDate":"2019-03-12","allHighlightFields":"<b>Includes</b>: strawberries, NS as to <em>raw</em>, cooked, canned, or frozen","score":308.5284},{"fdcId":167782,"description":"Abiyuch, raw","scientificName":"Crateva religiosa","commonNames":"garlic pear","dataType":"SR Legacy","ndbNumber":"9427","publishedDate":"2019-03-12","allHighlightFields":"","score":296.9358},{"fdcId":341508,"description":"Apple, raw","dataType":"Survey (FNDDS)","foodCode":"63101000","publishedDate":"2019-03-12","allHighlightFields":"","score":296.9358},{"fdcId":341521,"description":"Apricot, raw","dataType":"Survey (FNDDS)","foodCode":"63103010","publishedDate":"2019-03-12","allHighlightFields":"","score":296.9358},{"fdcId":171697,"description":"Apricots, raw","scientificName":"Prunus armeniaca","dataType":"SR Legacy","ndbNumber":"9021","publishedDate":"2019-03-12","allHighlightFields":"","score":296.9358},{"fdcId":169203,"description":"Arrowhead, raw","scientificName":"Sagittaria latifolia","dataType":"SR Legacy","ndbNumber":"11005","publishedDate":"2019-03-12","allHighlightFields":"","score":296.9358},{"fdcId":168490,"description":"Arrowroot, raw","scientificName":"Maranta arundinacea","dataType":"SR Legacy","ndbNumber":"11697","publishedDate":"2019-03-12","allHighlightFields":"","score":296.9358},{"fdcId":169387,"description":"Arugula, raw","scientificName":"Eruca sativa","dataType":"SR Legacy","ndbNumber":"11959","publishedDate":"2019-03-12","allHighlightFields":"","score":296.9358},{"fdcId":342594,"description":"Asparagus, raw","dataType":"Survey (FNDDS)","foodCode":"75100800","publishedDate":"2019-03-12","allHighlightFields":"","score":296.9358},{"fdcId":168389,"description":"Asparagus, raw","scientificName":"Asparagus officinalis","dataType":"SR Legacy","ndbNumber":"11011","publishedDate":"2019-03-12","allHighlightFields":"","score":296.9358},{"fdcId":341528,"description":"Avocado, raw","dataType":"Survey (FNDDS)","foodCode":"63105010","publishedDate":"2019-03-12","allHighlightFields":"","score":296.9358},{"fdcId":341529,"description":"Banana, raw","dataType":"Survey (FNDDS)","foodCode":"63107010","publishedDate":"2019-03-12","allHighlightFields":"","score":296.9358},{"fdcId":173944,"description":"Bananas, raw","scientificName":"Musa acuminata Colla","dataType":"SR Legacy","ndbNumber":"9040","publishedDate":"2019-03-12","allHighlightFields":"","score":296.9358},{"fdcId":342608,"description":"Basil, raw","dataType":"Survey (FNDDS)","foodCode":"75109400","publishedDate":"2019-03-12","allHighlightFields":"","score":296.9358},{"fdcId":342598,"description":"Beets, raw","dataType":"Survey (FNDDS)","foodCode":"75102500","publishedDate":"2019-03-12","allHighlightFields":"","score":296.9358},{"fdcId":169145,"description":"Beets, raw","scientificName":"Beta vulgaris","dataType":"SR Legacy","ndbNumber":"11080","publishedDate":"2019-03-12","allHighlightFields":"","score":296.9358},{"fdcId":173946,"description":"Blackberries, raw","scientificName":"Rubus spp.","dataType":"SR Legacy","ndbNumber":"9042","publishedDate":"2019-03-12","allHighlightFields":"","score":296.9358},{"fdcId":341635,"description":"Blackberries, raw","dataType":"Survey (FNDDS)","foodCode":"63201010","publishedDate":"2019-03-12","allHighlightFields":"","score":296.9358},{"fdcId":341640,"description":"Blueberries, raw","dataType":"Survey (FNDDS)","foodCode":"63203010","publishedDate":"2019-03-12","allHighlightFields":"","score":296.9358},{"fdcId":171711,"description":"Blueberries, raw","scientificName":"Vaccinium spp.","dataType":"SR Legacy","ndbNumber":"9050","publishedDate":"2019-03-12","allHighlightFields":"","score":296.9358},{"fdcId":170481,"description":"Borage, raw","scientificName":"Borago officinalis","dataType":"SR Legacy","ndbNumber":"11613","publishedDate":"2019-03-12","allHighlightFields":"","score":296.9358},{"fdcId":341649,"description":"Boysenberries, raw","dataType":"Survey (FNDDS)","foodCode":"63205010","publishedDate":"2019-03-12","allHighlightFields":"","score":296.9358},{"fdcId":171714,"description":"Breadfruit, raw","scientificName":"Artocarpus altilis","dataType":"SR Legacy","ndbNumber":"9059","publishedDate":"2019-03-12","allHighlightFields":"","score":296.9358},{"fdcId":342599,"description":"Broccoflower, raw","dataType":"Survey (FNDDS)","foodCode":"75102600","publishedDate":"2019-03-12","allHighlightFields":"","score":296.9358},{"fdcId":169975,"description":"Cabbage, raw","scientificName":"Brassica oleracea (Capitata Group)","dataType":"SR Legacy","ndbNumber":"11109","publishedDate":"2019-03-12","allHighlightFields":"","score":296.9358},{"fdcId":342604,"description":"Cactus, raw","dataType":"Survey (FNDDS)","foodCode":"75105500","publishedDate":"2019-03-12","allHighlightFields":"","score":296.9358},{"fdcId":341422,"description":"Calamondin, raw","dataType":"Survey (FNDDS)","foodCode":"61100500","publishedDate":"2019-03-12","allHighlightFields":"","score":296.9358},{"fdcId":169981,"description":"Cardoon, raw","scientificName":"Cynara cardunculus","dataType":"SR Legacy","ndbNumber":"11122","publishedDate":"2019-03-12","allHighlightFields":"","score":296.9358},{"fdcId":342354,"description":"Carrots, raw","dataType":"Survey (FNDDS)","foodCode":"73101010","publishedDate":"2019-03-12","allHighlightFields":"","score":296.9358},{"fdcId":170393,"description":"Carrots, raw","scientificName":"Daucus carota","dataType":"SR Legacy","ndbNumber":"11124","publishedDate":"2019-03-12","allHighlightFields":"","score":296.9358},{"fdcId":169985,"description":"Cassava, raw","scientificName":"Manihot esculenta","dataType":"SR Legacy","ndbNumber":"11134","publishedDate":"2019-03-12","allHighlightFields":"","score":296.9358},{"fdcId":169986,"description":"Cauliflower, raw","scientificName":"Brassica oleracea (Botrytis Group)","dataType":"SR Legacy","ndbNumber":"11135","publishedDate":"2019-03-12","allHighlightFields":"","score":296.9358},{"fdcId":342605,"description":"Cauliflower, raw","dataType":"Survey (FNDDS)","foodCode":"75107000","publishedDate":"2019-03-12","allHighlightFields":"","score":296.9358}]}