{"foodSearchCriteria":{"generalSearchInput":"raw +broccoli","pageNumber":1,"requireAllWords":false},"totalHits":2630,"currentPage":1,"totalPages":53,"foods":[{"fdcId":321900,"description":"Broccoli, raw","scientificName":"Brassica oleracea var. italica","dataType":"Foundation","ndbNumber":"11090","publishedDate":"2019-03-12","allHighlightFields":"","score":653.8646},{"fdcId":170379,"description":"Broccoli, raw","scientificName":"Brassica oleracea var. italica","dataType":"SR Legacy","ndbNumber":"11090","publishedDate":"2019-03-12","allHighlightFields":"","score":653.8646},{"fdcId":342297,"description":"Broccoli, raw","dataType":"Survey (FNDDS)","foodCode":"72201100","publishedDate":"2019-03-12","allHighlightFields":"","score":653.8646},{"fdcId":170381,"description":"Broccoli raab, raw","scientificName":"Brassica ruvo","commonNames":"Broccoli rabe, Rapini","dataType":"SR Legacy","ndbNumber":"11096","publishedDate":"2019-03-12","allHighlightFields":"<b>Common Names</b>: <em>Broccoli</em> rabe, Rapini","score":596.1001},{"fdcId":342039,"description":"Broccoli raab, raw","additionalDescriptions":"Broccoli rabe, raap, or rapini","dataType":"Survey (FNDDS)","foodCode":"72103000","publishedDate":"2019-03-12","allHighlightFields":"<b>Includes</b>: <em>Broccoli</em> rabe, raap, or rapini","score":591.41583},{"fdcId":169404,"description":"Broccoli, chinese, raw","scientificName":" Brassica oleracea var. alboglabra","commonNames":"gai-lan, kai-lan","dataType":"SR Legacy","ndbNumber":"11994","publishedDate":"2019-03-12","allHighlightFields":"","score":581.79156},{"fdcId":342328,"description":"Broccoli, chinese, raw","dataType":"Survey (FNDDS)","foodCode":"72203000","publishedDate":"2019-03-12","allHighlightFields":"","score":581.79156},{"fdcId":169329,"description":"Broccoli, leaves, raw","dataType":"SR Legacy","ndbNumber":"11739","publishedDate":"2019-03-12","allHighlightFields":"","score":581.79156},{"fdcId":169331,"description":"Broccoli, stalks, raw","dataType":"SR Legacy","ndbNumber":"11741","publishedDate":"2019-03-12","allHighlightFields":"","score":581.79156},{"fdcId":169330,"description":"Broccoli, flower clusters, raw","dataType":"SR Legacy","ndbNumber":"11740","publishedDate":"2019-03-12","allHighlightFields":"","score":524.0495},{"fdcId":338397,"description":"Beef and broccoli","dataType":"Survey (FNDDS)","foodCode":"27415110","publishedDate":"2019-03-12","allHighlightFields":"","score":357.92883},{"fdcId":342325,"description":"Broccoli casserole (broccoli, noodles, and cream sauce)","dataType":"Survey (FNDDS)","foodCode":"72202010","publishedDate":"2019-03-12","allHighlightFields":"","score":345.07852},{"fdcId":170382,"description":"Broccoli raab, cooked","commonNames":"Broccoli rabe, Rapini","dataType":"SR Legacy","ndbNumber":"11097","publishedDate":"2019-03-12","allHighlightFields":"<b>Common Names</b>: <em>Broccoli</em> rabe, Rapini","score":332.8342},{"fdcId":342645,"description":"Broccoli slaw salad ","additionalDescriptions":"Broccoli salad, NFS","dataType":"Survey (FNDDS)","foodCode":"75140510","publishedDate":"2019-03-12","allHighlightFields":"<b>Includes</b>: <em>Broccoli</em> salad, NFS","score":328.89166},{"fdcId":342326,"description":"Broccoli casserole (broccoli, rice, cheese, and mushroom sauce)","dataType":"Survey (FNDDS)","foodCode":"72202020","publishedDate":"2019-03-12","allHighlightFields":"","score":325.65955},{"fdcId":169392,"description":"Broccoli, chinese, cooked","dataType":"SR Legacy","ndbNumber":"11969","publishedDate":"2019-03-12","allHighlightFields":"","score":318.52563},{"fdcId":342327,"description":"Broccoli, batter-dipped and fried","dataType":"Survey (FNDDS)","foodCode":"72202030","publishedDate":"2019-03-12","allHighlightFields":"","score":286.95737},{"fdcId":169968,"description":"Broccoli, frozen, chopped, unprepared","dataType":"SR Legacy","ndbNumber":"11092","publishedDate":"2019-03-12","allHighlightFields":"","score":286.95737},{"fdcId":341012,"description":"Croissant sandwich, filled with broccoli and cheese","additionalDescriptions":"Sara Lee croissant with broccoli and cheese","dataType":"Survey (FNDDS)","foodCode":"58127200","publishedDate":"2019-03-12","allHighlightFields":"<b>Includes</b>: Sara Lee croissant with <em>broccoli</em> and cheese","score":270.08008},{"fdcId":342043,"description":"Broccoli raab, cooked, made with oil","additionalDescriptions":"Broccoli rabe, raap, or rapini; from fresh, frozen, or canned","dataType":"Survey (FNDDS)","foodCode":"72103040","publishedDate":"2019-03-12","allHighlightFields":"<b>Includes</b>: <em>Broccoli</em> rabe, raap, or rapini; from fresh, frozen, or canned","score":268.5811},{"fdcId":342045,"description":"Broccoli raab, cooked, made with margarine","additionalDescriptions":"Broccoli rabe, raap, or rapini; from fresh, frozen, or canned; made with shortening","dataType":"Survey (FNDDS)","foodCode":"72103060","publishedDate":"2019-03-12","allHighlightFields":"<b>Includes</b>: <em>Broccoli</em> rabe, raap, or rapini; from fresh, frozen, or canned; made with shortening","score":267.83188},{"fdcId":342044,"description":"Broccoli raab, cooked, made with butter","additionalDescriptions":"made with animal fat or meat drippings; Broccoli rabe, raap, or rapini; from fresh, frozen, or canned","dataType":"Survey (FNDDS)","foodCode":"72103050","publishedDate":"2019-03-12","allHighlightFields":"<b>Includes</b>: made with animal fat or meat drippings; <em>Broccoli</em> rabe, raap, or rapini; from fresh, frozen, or canned","score":266.95267},{"fdcId":172288,"description":"Babyfood, dinner, broccoli and chicken, junior","dataType":"SR Legacy","ndbNumber":"3298","publishedDate":"2019-03-12","allHighlightFields":"","score":261.09848},{"fdcId":343782,"description":"Broccoli and chicken, baby food, strained","additionalDescriptions":"Gerber Second Foods Simple Recipe","dataType":"Survey (FNDDS)","foodCode":"76604000","publishedDate":"2019-03-12","allHighlightFields":"","score":261.09848},{"fdcId":168510,"description":"Broccoli, cooked, boiled, drained, with salt","dataType":"SR Legacy","ndbNumber":"11742","publishedDate":"2019-03-12","allHighlightFields":"","score":261.09848},{"fdcId":342041,"description":"Broccoli raab, cooked, fat not added in cooking","additionalDescriptions":"Broccoli rabe, raap, or rapini; from fresh, frozen, or canned; made with cooking spray","dataType":"Survey (FNDDS)","foodCode":"72103020","publishedDate":"2019-03-12","allHighlightFields":"<b>Includes</b>: <em>Broccoli</em> rabe, raap, or rapini; from fresh, frozen, or canned; made with cooking spray","score":245.94093},{"fdcId":170989,"description":"Babyfood, mashed cheddar potatoes and broccoli, toddlers","dataType":"SR Legacy","ndbNumber":"3959","publishedDate":"2019-03-12","allHighlightFields":"","score":239.52855},{"fdcId":343745,"description":"Broccoli, carrots and cheese, baby food, junior","additionalDescriptions":"Gerber Third Foods","dataType":"Survey (FNDDS)","foodCode":"76102030","publishedDate":"2019-03-12","allHighlightFields":"","score":239.52855},{"fdcId":169967,"description":"Broccoli, cooked, boiled, drained, without salt","dataType":"SR Legacy","ndbNumber":"11091","publishedDate":"2019-03-12","allHighlightFields":"","score":239.52855},{"fdcId":342311,"description":"Broccoli, cooked, from fresh, made with butter","additionalDescriptions":"made with animal fat or meat drippings","dataType":"Survey (FNDDS)","foodCode":"72201224","publishedDate":"2019-03-12","allHighlightFields":"","score":239.52855},{"fdcId":342312,"description":"Broccoli, cooked, from fresh, made with margarine","additionalDescriptions":"made with shortening","dataType":"Survey (FNDDS)","foodCode":"72201225","publishedDate":"2019-03-12","allHighlightFields":"","score":239.52855},{"fdcId":342310,"description":"Broccoli, cooked, from fresh, made with oil","dataType":"Survey (FNDDS)","foodCode":"72201223","publishedDate":"2019-03-12","allHighlightFields":"","score":239.52855},{"fdcId":342317,"description":"Broccoli, cooked, from fresh, with cheese sauce","dataType":"Survey (FNDDS)","foodCode":"72201231","publishedDate":"2019-03-12","allHighlightFields":"","score":239.52855},{"fdcId":342323,"description":"Broccoli, cooked, from fresh, with cream sauce","dataType":"Survey (FNDDS)","foodCode":"72201251","publishedDate":"2019-03-12","allHighlightFields":"","score":239.52855},{"fdcId":342320,"description":"Broccoli, cooked, from fresh, with mushroom sauce","dataType":"Survey (FNDDS)","foodCode":"72201241","publishedDate":"2019-03-12","allHighlightFields":"","score":239.52855},{"fdcId":342314,"description":"Broccoli, cooked, from frozen, made with butter","additionalDescriptions":"made with animal fat or meat drippings","dataType":"Survey (FNDDS)","foodCode":"72201227","publishedDate":"2019-03-12","allHighlightFields":"","score":239.52855},{"fdcId":342315,"description":"Broccoli, cooked, from frozen, made with margarine","additionalDescriptions":"made with shortening","dataType":"Survey (FNDDS)","foodCode":"72201228","publishedDate":"2019-03-12","allHighlightFields":"","score":239.52855},{"fdcId":342313,"description":"Broccoli, cooked, from frozen, made with oil","dataType":"Survey (FNDDS)","foodCode":"72201226","publishedDate":"2019-03-12","allHighlightFields":"","score":239.52855},{"fdcId":342318,"description":"Broccoli, cooked, from frozen, with cheese sauce","dataType":"Survey (FNDDS)","foodCode":"72201232","publishedDate":"2019-03-12","allHighlightFields":"","score":239.52855},{"fdcId":342324,"description":"Broccoli, cooked, from frozen, with cream sauce","dataType":"Survey (FNDDS)","foodCode":"72201252","publishedDate":"2019-03-12","allHighlightFields":"","score":239.52855},{"fdcId":342321,"description":"Broccoli, cooked, from frozen, with mushroom sauce","dataType":"Survey (FNDDS)","foodCode":"72201242","publishedDate":"2019-03-12","allHighlightFields":"","score":239.52855},{"fdcId":342305,"description":"Broccoli, cooked, NS as to form, made with butter","additionalDescriptions":"made with animal fat or meat drippings","dataType":"Survey (FNDDS)","foodCode":"72201214","publishedDate":"2019-03-12","allHighlightFields":"","score":239.52855},{"fdcId":342306,"description":"Broccoli, cooked, NS as to form, made with margarine","additionalDescriptions":"made with shortening","dataType":"Survey (FNDDS)","foodCode":"72201215","publishedDate":"2019-03-12","allHighlightFields":"","score":239.52855},{"fdcId":342304,"description":"Broccoli, cooked, NS as to form, made with oil","dataType":"Survey (FNDDS)","foodCode":"72201213","publishedDate":"2019-03-12","allHighlightFields":"","score":239.52855},{"fdcId":342316,"description":"Broccoli, cooked, NS as to form, with cheese sauce","dataType":"Survey (FNDDS)","foodCode":"72201230","publishedDate":"2019-03-12","allHighlightFields":"","score":239.52855},{"fdcId":342322,"description":"Broccoli, cooked, NS as to form, with cream sauce","dataType":"Survey (FNDDS)","foodCode":"72201250","publishedDate":"2019-03-12","allHighlightFields":"","score":239.52855},{"fdcId":342319,"description":"Broccoli, cooked, NS as to form, with mushroom sauce","dataType":"Survey (FNDDS)","foodCode":"72201240","publishedDate":"2019-03-12","allHighlightFields":"","score":239.52855},{"fdcId":338891,"description":"Flounder with chopped broccoli (diet frozen meal)","additionalDescriptions":"Lean Cuisine Filet of Fish Divan","dataType":"Survey (FNDDS)","foodCode":"28150220","publishedDate":"2019-03-12","allHighlightFields":"","score":239.52855},{"fdcId":343787,"description":"Potatoes with cheese and broccoli, baby food, toddler","additionalDescriptions":"Gerber Graduate lil' sides","dataType":"Survey (FNDDS)","foodCode":"76607100","publishedDate":"2019-03-12","allHighlightFields":"","score":239.52855},{"fdcId":171178,"description":"Soup, broccoli cheese, canned, condensed, commercial","dataType":"SR Legacy","ndbNumber":"6584","publishedDate":"2019-03-12","allHighlightFields":"","score":239.52855}]}